[{
  "_id": {
    "$oid": "611c8ec3ac74367541dbf0c9"
  },
  "encuentro": "611c8ec3ac74367541dbf0ca",
  "goles_equipo_local": 2,
  "goles_equipo_visitante": 1,
  "tarjetas_amarillas": 3,
  "tarjetas_rojas": 0,
  "otros_detalles": "Partido disputado con intensidad hasta el último minuto."
}]